{"fields":[{"id":"item1","type":"text","info":{"label":"統計期"}},{"id":"item2","type":"text","info":{"label":"統計區"}},{"id":"value1","type":"text","info":{"label":"總懸浮微粒濃度值"}},{"id":"value2","type":"text","info":{"label":"粒徑2.5微米以下之懸浮微粒濃度值"}},{"id":"value3","type":"text","info":{"label":"粒徑10微米以下之懸浮微粒濃度值"}},{"id":"value4","type":"text","info":{"label":"二氧化硫濃度值"}},{"id":"value5","type":"text","info":{"label":"一氧化碳濃度值"}},{"id":"value6","type":"text","info":{"label":"二氧化氮濃度值"}},{"id":"value7","type":"text","info":{"label":"臭氧最大小時值濃度值"}}],"resource_id":"1a7792d4-1a74-4d0d-a637-84e3289eee7a","__extras":{"api_key":"e8dd42e6-9b8b-43f8-991e-b3dee723a52d"},"include_total":true,"total":"3519","resource_format":"object","limit":"1000","offset":"0","_links":{"start":"/api/v2/stat_p_116?api_key=e8dd42e6-9b8b-43f8-991e-b3dee723a52d&limit=1000&format=JSON&sort=ImportDatedesc","next":"/api/v2/stat_p_116?api_key=e8dd42e6-9b8b-43f8-991e-b3dee723a52d&limit=1000&format=JSON&sort=ImportDatedesc&offset=1000"},"records":[{"item1":"111年10月","item2":"嘉義市","value1":"52","value2":"16.9","value3":"39.9","value4":"2.54","value5":"0.27","value6":"10.04","value7":"69.3"},{"item1":"111年10月","item2":"新竹市","value1":"45.3","value2":"11.5","value3":"22.8","value4":"1.01","value5":"0.21","value6":"7.73","value7":"46.43"}]}